5.625600000000000000e+04
7.403500000000000000e+04
9.898000000000000000e+03
1.065200000000000000e+04
5.921000000000000000e+03
6.254000000000000000e+03
7.583000000000000000e+03
7.747000000000000000e+03
3.561000000000000000e+03
7.618000000000000000e+03
6.188000000000000000e+03
4.955000000000000000e+03
2.586000000000000000e+03
